{
	"autor": "Javier Molines",
	"fecha": "10/10/2020",
	"hora": "12:47:24",
	"conte": [
		{
			"flujo": "entelPre1",
			"datos": []
		},
		{
			"flujo": "entelPre2",
			"datos": [
				[
					{
						"lblT0": {
							"text": "Código",
							"parametro": "",
							"isVisible": true
						},
						"lblV0": {
							"text": "67047288",
							"parametro": "codCuenta",
							"isVisible": true
						},
						"lblT1": {
							"text": "Saldo",
							"parametro": "",
							"isVisible": true
						},
						"lblV1": {
							"text": "102.07",
							"parametro": "saldo",
							"isVisible": true
						},
						"lblT2": {
							"text": "Monto Mínimo",
							"parametro": "",
							"isVisible": true
						},
						"lblV2": {
							"text": "5",
							"parametro": "montoMinimo",
							"isVisible": true
						},
						"lblT3": {
							"text": "descripcion",
							"parametro": "",
							"isVisible": false
						},
						"lblV3": {
							"text": "PRE_PAGO_MOVIL",
							"parametro": "descripcion",
							"isVisible": false
						},
						"lblT4": {
							"text": "idSeguimiento",
							"parametro": "",
							"isVisible": false
						},
						"lblV4": {
							"text": "20021",
							"parametro": "idSeguimiento",
							"isVisible": false
						},
						"lblT5": {
							"text": "tipoCuenta",
							"parametro": "",
							"isVisible": false
						},
						"lblV5": {
							"text": "TC_PREMOV",
							"parametro": "tipoCuenta",
							"isVisible": false
						},
						"lblT6": {
							"text": "tipoCuentaDescripcion",
							"parametro": "",
							"isVisible": false
						},
						"lblV6": {
							"text": "PRE_PAGO_MOVIL",
							"parametro": "tipoCuentaDescripcion",
							"isVisible": false
						},
						"montoAuxiliar": {},
						"imgSelect": "radiobuttoninactivo.png",
						"lblT7": {
							"isVisible": false
						},
						"lblV7": {
							"isVisible": false
						},
						"lblT8": {
							"isVisible": false
						},
						"lblV8": {
							"isVisible": false
						},
						"lblT9": {
							"isVisible": false
						},
						"lblV9": {
							"isVisible": false
						},
						"lblT10": {
							"isVisible": false
						},
						"lblV10": {
							"isVisible": false
						},
						"lblT11": {
							"isVisible": false
						},
						"lblV11": {
							"isVisible": false
						},
						"lblT12": {
							"isVisible": false
						},
						"lblV12": {
							"isVisible": false
						},
						"lblT13": {
							"isVisible": false
						},
						"lblV13": {
							"isVisible": false
						},
						"lblT14": {
							"isVisible": false
						},
						"lblV14": {
							"isVisible": false
						},
						"lblT15": {
							"isVisible": false
						},
						"lblV15": {
							"isVisible": false
						},
						"flxSeperator": {
							"isVisible": true
						}
					}
				]
			]
		},
		{
			"flujo": "entelPre3",
			"datos": [
				[
					{
						"lblT0": {
							"text": "Nro",
							"parametro": "",
							"isVisible": true
						},
						"lblV0": {
							"text": "67047288",
							"parametro": "nro",
							"isVisible": true
						},
						"lblT1": {
							"text": "Monto",
							"parametro": "",
							"isVisible": true
						},
						"lblV1": {
							"text": "25",
							"parametro": "monto",
							"isVisible": true
						},
						"lblT2": {
							"text": "Periodo",
							"parametro": "",
							"isVisible": true
						},
						"lblV2": {
							"text": "",
							"parametro": "periodo",
							"isVisible": true
						},
						"lblT3": {
							"text": "",
							"parametro": "",
							"isVisible": false
						},
						"lblV3": {
							"text": "20021",
							"parametro": "idSeguimiento",
							"isVisible": false
						},
						"lblT4": {
							"text": "",
							"parametro": "",
							"isVisible": false
						},
						"lblV4": {
							"text": "8330408",
							"parametro": "nit",
							"isVisible": false
						},
						"lblT5": {
							"text": "",
							"parametro": "",
							"isVisible": false
						},
						"lblV5": {
							"text": "TC_PREMOV",
							"parametro": "tipoCuenta",
							"isVisible": false
						},
						"lblT6": {
							"text": "",
							"parametro": "",
							"isVisible": false
						},
						"lblV6": {
							"text": "Yampasi",
							"parametro": "razonSocial",
							"isVisible": false
						},
						"montoAuxiliar": {
							"text": "25",
							"parametro": "monto"
						},
						"imgSelect": "checkinactivo.png",
						"lblT7": {
							"isVisible": false
						},
						"lblV7": {
							"isVisible": false
						},
						"lblT8": {
							"isVisible": false
						},
						"lblV8": {
							"isVisible": false
						},
						"lblT9": {
							"isVisible": false
						},
						"lblV9": {
							"isVisible": false
						},
						"lblT10": {
							"isVisible": false
						},
						"lblV10": {
							"isVisible": false
						},
						"lblT11": {
							"isVisible": false
						},
						"lblV11": {
							"isVisible": false
						},
						"lblT12": {
							"isVisible": false
						},
						"lblV12": {
							"isVisible": false
						},
						"lblT13": {
							"isVisible": false
						},
						"lblV13": {
							"isVisible": false
						},
						"lblT14": {
							"isVisible": false
						},
						"lblV14": {
							"isVisible": false
						},
						"lblT15": {
							"isVisible": false
						},
						"lblV15": {
							"isVisible": false
						},
						"flxSeperator": {
							"isVisible": true
						}
					},
					{
						"lblT0": {
							"text": "Nro",
							"parametro": "",
							"isVisible": true
						},
						"lblV0": {
							"text": "111333222",
							"parametro": "nro",
							"isVisible": true
						},
						"lblT1": {
							"text": "Monto",
							"parametro": "",
							"isVisible": true
						},
						"lblV1": {
							"text": "50",
							"parametro": "monto",
							"isVisible": true
						},
						"lblT2": {
							"text": "Periodo",
							"parametro": "",
							"isVisible": true
						},
						"lblV2": {
							"text": "",
							"parametro": "periodo",
							"isVisible": true
						},
						"lblT3": {
							"text": "",
							"parametro": "",
							"isVisible": false
						},
						"lblV3": {
							"text": "20022",
							"parametro": "idSeguimiento",
							"isVisible": false
						},
						"lblT4": {
							"text": "",
							"parametro": "",
							"isVisible": false
						},
						"lblV4": {
							"text": "8330999",
							"parametro": "nit",
							"isVisible": false
						},
						"lblT5": {
							"text": "",
							"parametro": "",
							"isVisible": false
						},
						"lblV5": {
							"text": "TC_PREMOV",
							"parametro": "tipoCuenta",
							"isVisible": false
						},
						"lblT6": {
							"text": "",
							"parametro": "",
							"isVisible": false
						},
						"lblV6": {
							"text": "Yampasimo",
							"parametro": "razonSocial",
							"isVisible": false
						},
						"montoAuxiliar": {
							"text": "50",
							"parametro": "monto"
						},
						"imgSelect": "checkinactivo.png",
						"lblT7": {
							"isVisible": false
						},
						"lblV7": {
							"isVisible": false
						},
						"lblT8": {
							"isVisible": false
						},
						"lblV8": {
							"isVisible": false
						},
						"lblT9": {
							"isVisible": false
						},
						"lblV9": {
							"isVisible": false
						},
						"lblT10": {
							"isVisible": false
						},
						"lblV10": {
							"isVisible": false
						},
						"lblT11": {
							"isVisible": false
						},
						"lblV11": {
							"isVisible": false
						},
						"lblT12": {
							"isVisible": false
						},
						"lblV12": {
							"isVisible": false
						},
						"lblT13": {
							"isVisible": false
						},
						"lblV13": {
							"isVisible": false
						},
						"lblT14": {
							"isVisible": false
						},
						"lblV14": {
							"isVisible": false
						},
						"lblT15": {
							"isVisible": false
						},
						"lblV15": {
							"isVisible": false
						},
						"flxSeperator": {
							"isVisible": true
						}
					}
				]
			]
		}
	]
}